{
  "auth": {
    "imagelibaryreactampl5533be2c": {
      "service": "Cognito",
      "providerPlugin": "awscloudformation",
      "dependsOn": [],
      "customAuth": false
    }
  },
  "storage": {
    "imagelibrarys3": {
      "service": "S3",
      "providerPlugin": "awscloudformation"
    }
  },
  "api": {
    "imagelibaryreactampl": {
      "service": "AppSync",
      "providerPlugin": "awscloudformation",
      "output": {
        "authConfig": {
          "defaultAuthentication": {
            "authenticationType": "AMAZON_COGNITO_USER_POOLS",
            "userPoolConfig": {
              "userPoolId": "authimagelibaryreactampl5533be2c_userpool_5533be2c"
            }
          },
          "additionalAuthenticationProviders": [
            {
              "authenticationType": "API_KEY",
              "apiKeyConfig": {
                "apiKeyExpirationDays": 30,
                "description": "api key description"
              }
            },
            {
              "authenticationType": "AWS_IAM"
            }
          ]
        }
      }
    }
  },
  "predictions": {
    "identifyLabels8365addd": {
      "providerPlugin": "awscloudformation",
      "service": "Rekognition",
      "dependsOn": [],
      "identifyType": "identifyLabels"
    }
  },
  "function": {
    "processImageLambdaFunc": {
      "build": true,
      "providerPlugin": "awscloudformation",
      "service": "Lambda",
      "dependsOn": [
        {
          "category": "storage",
          "resourceName": "imagelibrarys3",
          "attributes": [
            "BucketName"
          ]
        },
        {
          "category": "api",
          "resourceName": "imagelibaryreactampl",
          "attributes": [
            "GraphQLAPIIdOutput"
          ]
        }
      ]
    },
    "insertRecordLambdaFunc": {
      "build": true,
      "providerPlugin": "awscloudformation",
      "service": "Lambda",
      "dependsOn": [
        {
          "category": "api",
          "resourceName": "imagelibaryreactampl",
          "attributes": [
            "GraphQLAPIIdOutput"
          ]
        }
      ]
    }
  }
}